<svg width="46" height="47" viewBox="0 0 46 47" fill="none" xmlns="http://www.w3.org/2000/svg">
<path d="M43.7264 33.0332L40.1953 36.1751L41.1712 37.2401C42.1649 35.9266 43.0344 34.5242 43.7264 33.0332Z" fill="#EF5136"/>
<path d="M24.119 41.6958C23.7464 41.7136 23.3738 41.7314 22.9834 41.7314C21.6348 41.7314 20.3218 41.5893 19.0619 41.3053C18.2812 38.9978 17.1633 35.2347 16.4181 30.6728C18.1215 30.8681 19.7717 30.9923 21.3864 31.0456L20.8896 29.0753C19.3458 29.0043 17.7666 28.88 16.1342 28.6848C16.1342 28.6493 16.1164 28.596 16.1164 28.5605C15.7083 25.1524 15.5486 21.3893 15.868 17.5019C19.9492 17.0404 24.7933 16.8452 29.9746 17.36C30.1343 19.2948 30.1521 21.1941 30.0988 23.0401L31.6603 23.6614C31.7313 21.6733 31.6958 19.6143 31.5361 17.5197C34.6946 17.9102 37.9595 18.6025 41.2422 19.632C41.3309 20.058 41.3841 20.4841 41.4373 20.9278C41.5083 21.5668 41.5261 22.2058 41.5261 22.8449C41.5261 24.2116 41.3841 25.5252 41.118 26.8032C40.8518 26.8742 40.5324 26.963 40.1953 27.0517L45.1636 29.0397C45.6427 27.1937 45.8911 25.2767 45.8911 23.2886C45.8911 22.3478 45.8202 21.4426 45.7137 20.5373C44.5603 8.9995 34.8188 0 22.9834 0C10.3673 0 0.128906 10.2243 0.128906 22.8626C0.128906 23.8034 0.199883 24.7264 0.306348 25.6317C1.47746 37.1517 11.2013 46.1512 23.0366 46.1512C23.7819 46.1512 24.5094 46.1157 25.2369 46.0447L24.119 41.6958ZM40.6566 17.4665C37.4981 16.5257 34.3574 15.9222 31.3232 15.5671C31.2877 15.3186 31.2699 15.0524 31.2344 14.8039C30.8263 11.6976 30.0988 8.53799 28.9277 5.44941C34.4639 7.33096 38.8467 11.8041 40.6566 17.4665ZM23.0544 4.45539C24.3852 4.45539 25.6983 4.59737 26.9404 4.88138C28.3776 8.23622 29.2648 11.6798 29.7439 15.0701C29.7617 15.1766 29.7617 15.2832 29.7794 15.3897C24.7756 14.9282 20.0911 15.0879 16.0809 15.5139C16.5245 11.9993 17.4117 8.41372 18.92 4.93463C20.2508 4.63287 21.6348 4.45539 23.0544 4.45539ZM16.8084 5.55591C15.5486 8.9285 14.8033 12.3543 14.4485 15.7092C10.4915 16.2239 7.35079 16.9517 5.43441 17.4665C7.19109 11.9283 11.4319 7.52621 16.8084 5.55591ZM4.60044 25.2412C4.52946 24.6022 4.51172 23.9631 4.51172 23.3064C4.51172 22.0638 4.63593 20.8391 4.8666 19.6498C6.41034 19.1883 9.78174 18.3185 14.2533 17.6972C14.0049 21.4781 14.1823 25.1347 14.5904 28.454C11.3965 27.9747 8.0783 27.1938 4.72465 26.04C4.67142 25.7915 4.63593 25.5252 4.60044 25.2412ZM5.22148 28.241C8.50416 29.306 11.7336 30.0161 14.8566 30.4598C15.4776 34.6667 16.4358 38.2523 17.2165 40.7906C11.4674 38.8913 6.94267 34.1874 5.22148 28.241Z" fill="#EF5136"/>
<path d="M26.2511 41.4478L27.0673 44.5718L32.5503 39.7614L35.2119 42.6548C37.1283 41.4477 38.8672 39.9567 40.34 38.2349L37.6251 35.2883L43.1081 30.4602L40.3755 29.3419C38.4236 34.7558 34.1118 39.0159 28.682 40.8087C29.4628 38.2881 30.3677 34.7913 30.9888 30.691C34.7328 30.3005 37.8026 29.6615 39.9141 29.1467L36.7202 27.8509C35.1587 28.1527 33.3133 28.4544 31.255 28.7029C31.3614 27.7444 31.4679 26.7504 31.5389 25.7386L29.9774 25.0996C29.8886 26.3954 29.7644 27.6379 29.6047 28.8449C27.5642 29.0224 25.3461 29.129 23.0039 29.0935L23.5185 31.046C23.6072 31.046 23.6959 31.046 23.7669 31.046C25.7188 31.046 27.5642 30.9572 29.3031 30.8152C28.5756 35.2883 27.4932 38.9982 26.7124 41.3057C26.5882 41.3945 26.4108 41.4123 26.2511 41.4478Z" fill="#EF5136"/>
<path d="M33.1502 42.3701L30.0449 45.086C31.4467 44.6422 32.7953 44.0564 34.0551 43.3641L33.1502 42.3701Z" fill="#EF5136"/>
</svg>
