<svg width="59" height="45" viewBox="0 0 59 45" fill="none" xmlns="http://www.w3.org/2000/svg">
<path d="M30.5998 27.3019L33.6142 26.1446L32.7017 20.9939H29.557C29.1334 19.9997 28.612 19.0706 27.9765 18.2067L29.5407 15.3869L25.5325 12.0291L23.121 14.0666C22.1759 13.5776 21.182 13.2027 20.1229 12.9419L19.5037 9.77979H14.2571L13.7194 12.893C12.6603 13.1375 11.6501 13.4961 10.7051 13.9525L8.1958 11.915L4.18752 15.2727L5.76802 18.0111C5.11627 18.8587 4.57857 19.7878 4.13864 20.7657L0.912455 20.8309L0 25.9816L2.96548 27.0574C3.01436 28.1495 3.19359 29.2089 3.48688 30.2195L1.0591 32.3384L3.66611 36.8697L6.63159 35.7777C7.36482 36.56 8.17951 37.2609 9.05938 37.864L8.55427 41.0587L13.475 42.8517L15.0555 40.1134C15.6258 40.1786 16.1961 40.2275 16.7827 40.2275C17.2878 40.2275 17.7766 40.1949 18.2491 40.146L19.9111 42.9169L24.8318 41.1239L24.2778 38.0107C25.174 37.4239 26.005 36.7394 26.7545 35.9733L29.8014 37.0164L32.4247 32.4852L30.0133 30.464C30.3228 29.4534 30.5184 28.3939 30.5998 27.3019ZM16.7827 34.0336C12.5463 34.0336 9.12455 30.6107 9.12455 26.3728C9.12455 22.1349 12.5463 18.712 16.7827 18.712C21.0191 18.712 24.4408 22.1349 24.4408 26.3728C24.4408 30.6107 21.0191 34.0336 16.7827 34.0336Z" fill="#EF5136"/>
<path d="M55.8701 32.257L58.2979 31.3279L57.5647 27.1715H55.0228C54.6806 26.3728 54.257 25.6067 53.7519 24.9221L55.0065 22.6402L51.7803 19.9344L49.8251 21.5807C49.0593 21.1895 48.2609 20.8798 47.3973 20.6679L46.8922 18.1089H42.6721L42.2322 20.619C41.3849 20.8146 40.5539 21.108 39.7881 21.4829L37.7676 19.853L34.5415 22.575L35.8124 24.7754C35.291 25.46 34.851 26.2098 34.4926 27.0085L31.8856 27.0574L31.1523 31.2138L33.5475 32.0777C33.5964 32.9579 33.7431 33.8217 33.9712 34.6367L31.9996 36.3482L34.1178 39.9993L36.513 39.1191C37.0996 39.7548 37.7513 40.3253 38.4846 40.798L38.0772 43.3733L42.0366 44.824L43.3075 42.6072C43.7638 42.6724 44.2363 42.705 44.7088 42.705C45.1162 42.705 45.5072 42.6887 45.8983 42.6398L47.2344 44.8729L51.1938 43.4222L50.7538 40.9121C51.4871 40.4394 52.1551 39.8852 52.7417 39.2658L55.2021 40.1134L57.3203 36.4623L55.365 34.8323C55.6583 33.9847 55.8212 33.1372 55.8701 32.257ZM44.7251 39.9178C40.0814 39.9178 36.3012 36.1526 36.3012 31.4909C36.3012 26.8455 40.0651 23.064 44.7251 23.064C49.3852 23.064 53.149 26.8455 53.149 31.4909C53.149 36.1526 49.3852 39.9178 44.7251 39.9178Z" fill="#EF5136"/>
<path d="M42.4285 15.2891L43.9439 16.1855L45.8177 14.0503L44.7586 12.7137C45.0355 12.2084 45.2637 11.6542 45.4103 11.1L47.1375 10.8067L47.2189 7.97051L45.5407 7.62824C45.4266 7.05775 45.2474 6.50355 45.003 5.98196L46.1435 4.6454L44.3838 2.42865L42.8848 3.24363C42.4285 2.86874 41.9234 2.55904 41.4183 2.31454L41.4346 0.570497L38.6484 0L38.0292 1.59736C37.4589 1.61366 36.8723 1.69517 36.3021 1.84187L35.1941 0.488994L32.7011 1.84187L33.2551 3.45551C32.8152 3.8467 32.4241 4.28681 32.0819 4.7432L30.3548 4.41721L29.312 7.05774L30.7784 7.95422C30.697 8.52471 30.6644 9.11148 30.7133 9.69827L29.1816 10.5621L30.0778 13.2516L31.7724 12.9908C31.9353 13.2516 32.1145 13.5124 32.3101 13.7732C32.473 13.9851 32.6522 14.1807 32.8478 14.3763L32.2286 16.0225L34.6564 17.5058L35.7806 16.2181C36.3346 16.3974 36.9049 16.5278 37.4752 16.5767L38.0618 18.223L40.8643 17.7992L40.9132 16.0877C41.4183 15.9084 41.9397 15.6313 42.4285 15.2891ZM33.7276 12.6322C31.7887 10.1873 32.196 6.61764 34.6401 4.67798C37.0842 2.73833 40.6525 3.12954 42.5915 5.59078C44.5304 8.03573 44.1231 11.6053 41.679 13.545C39.2349 15.4846 35.6666 15.0772 33.7276 12.6322Z" fill="#EF5136"/>
</svg>
