<svg width="96" height="46" viewBox="0 0 96 46" fill="none" xmlns="http://www.w3.org/2000/svg">
<path d="M18.0886 6.55975L17.2097 6.66034L18.0472 6.57547L12.834 7.16638L7.52843 7.76987C3.48078 8.22877 0.1656 11.0042 0.108277 14.6062L0 21.5589C0.00318462 21.5589 0.00636923 21.5589 0.00955385 21.5589C0.235662 18.0951 3.52855 15.4486 7.46792 15.0023L8.34688 14.9017L7.50932 14.9865L12.7225 14.3956L18.0281 13.7921C22.0726 13.3332 25.3878 10.5578 25.4451 6.95265L25.5534 0C25.5502 0 25.547 0 25.5438 0C25.3177 3.46375 22.0216 6.11343 18.0886 6.55975Z" fill="white"/>
<path d="M18.0886 18.7805L17.2097 18.881L18.0472 18.7962L12.834 19.3871L7.52843 19.9906C3.48078 20.4495 0.1656 23.2249 0.108277 26.8269L0 33.7796C0.00318462 33.7796 0.00636923 33.7796 0.00955385 33.7796C0.232477 30.3127 3.52855 27.6661 7.46474 27.2198L8.34369 27.1192L7.50614 27.2041L12.7194 26.6132L18.0249 26.0097C22.0694 25.5508 25.3846 22.7754 25.4419 19.1702L25.5502 12.2207C25.547 12.2207 25.5438 12.2207 25.5406 12.2207C25.3177 15.6845 22.0216 18.3341 18.0886 18.7805Z" fill="white"/>
<path d="M18.0886 31.0009L17.2097 31.1015L18.0472 31.0198L12.834 31.6107L7.52843 32.2142C3.48397 32.6731 0.168785 35.4485 0.111462 39.0537L0 46.0001C0.00318462 46.0001 0.00636923 46.0001 0.00955385 46.0001C0.235662 42.5363 3.52855 39.8898 7.46792 39.4435L8.34688 39.3429L7.50932 39.4277L12.7225 38.8368L18.0281 38.2333C22.0726 37.7744 25.3878 34.999 25.4451 31.3938L25.5534 24.4443H25.5438C25.3177 27.9049 22.0216 30.5515 18.0886 31.0009Z" fill="white"/>
<path d="M45.7339 21.0119C45.1862 20.7887 44.5397 20.5655 43.8008 20.311L42.1894 19.7703C41.8996 19.6446 41.5461 19.4843 41.1895 19.2926C40.5143 18.8777 40.3201 18.4345 40.3201 17.7021C40.3201 16.6523 41.3837 15.8885 43.027 15.8885C44.8008 15.8885 46.1543 16.4606 47.0555 17.6047L50.3739 15.1248C48.6351 12.7077 46.1511 11.4976 42.8964 11.4976C40.8009 11.4976 39.0303 12.0696 37.5781 13.2169C36.1291 14.3295 35.4189 15.8571 35.4189 17.765C35.4189 21.1062 37.352 22.9198 40.8646 24.1896C41.5079 24.4442 42.7977 24.8559 43.3454 25.0791C43.9569 25.2394 44.8613 25.6197 45.2785 25.9058C46.0205 26.3521 46.5046 26.9241 46.5046 27.7508C46.5046 28.9263 45.4409 29.9447 43.1544 29.9447C40.5748 29.9447 38.7055 28.9578 37.5144 27.0184L33.9062 29.4669C35.4221 32.3618 38.5781 34.3671 43.1225 34.3671C48.6319 34.3671 51.4694 31.6954 51.4694 27.5936C51.4694 24.4159 49.8261 22.5363 45.7339 21.0119Z" fill="white"/>
<path d="M56.0286 11.8496V16.3035H63.2481L57.7037 23.6521C58.7037 23.3661 60.0571 23.2372 61.7323 23.2372C64.5698 23.2372 66.213 24.5102 66.213 26.547C66.213 28.5523 64.5379 29.8882 62.2482 29.8882C60.2164 29.8882 58.7674 29.1244 57.898 27.5654L54 29.951C55.5159 32.6227 58.6081 34.3389 62.3469 34.3389C65.022 34.3389 67.1493 33.5751 68.7607 32.0821C70.3721 30.5859 71.1778 28.678 71.1778 26.4213C71.1778 24.6705 70.6301 23.1775 69.5027 21.8731C68.3754 20.5687 66.9901 19.8678 65.3468 19.7106H65.315L71.3084 11.8528H56.0286V11.8496Z" fill="white"/>
<path d="M73.7866 29.9162C72.7547 30.9346 72.7547 32.525 73.7866 33.5434C74.8502 34.5618 76.4616 34.5618 77.4935 33.5434C78.5571 32.525 78.5571 30.9346 77.4935 29.9162C76.4616 28.901 74.8502 28.901 73.7866 29.9162Z" fill="white"/>
<path d="M88.6422 21.7755C90.0912 21.7755 91.3172 22.3161 92.3809 23.4288L95.4095 20.4711C93.5719 18.4657 91.3172 17.4819 88.6422 17.4819C86.1295 17.4819 84.0022 18.3086 82.2602 19.9304C80.5532 21.5523 79.6807 23.5576 79.6807 25.9747C79.6807 28.3918 80.5501 30.3971 82.2602 32.019C84.0022 33.6409 86.1263 34.4361 88.6422 34.4361C91.3172 34.4361 93.5719 33.4491 95.4095 31.4469L92.3809 28.4892C91.3172 29.6019 90.0943 30.1425 88.6422 30.1425C86.3206 30.1425 84.4831 28.3918 84.4831 25.9747C84.4862 23.5545 86.2919 21.7755 88.6422 21.7755Z" fill="white"/>
</svg>
